  [107356 kB]  
  [93769 kB]  
  [103357 kB]  
  [54199 kB]  
  [26449 kB]  
  [60636 kB]  
  [77911 kB]  
  [93737 kB]  
  [59987 kB]  
  [81853 kB]  
  [59350 kB]  
  [132268 kB]  
  [135558 kB]  
  [80121 kB]  
  [141748 kB]  
  [131951 kB]  
  [89196 kB]  
  [71319 kB]  
  [47752 kB]  
  [39262 kB]  
  [78877 kB]  
  [106306 kB]  
  [78225 kB]  
  [135730 kB]  
  [64227 kB]  
  [72520 kB]  
  [64749 kB]  
  [58215 kB]  
